{
  "teams": [
    {
      "id": 1,
      "name": "Partizan"
    },
    {
      "id": 2,
      "name": "Crvena Zvezda"
    },
    {
      "id": 3,
      "name": "Radnicki Nis"
    },
    {
      "id": 4,
      "name": "Cukaricki"
    },
    {
      "id": 5,
      "name": "Mladost"
    },
    {
      "id": 6,
      "name": "Napredak"
    },
    {
      "id": 7,
      "name": "Vojvodina"
    },
    {
      "id": 8,
      "name": "Proleter"
    },
    {
      "id": 9,
      "name": "Radnik"
    },
    {
      "id": 10,
      "name": "Spartak ZK"
    },
    {
      "id": 11,
      "name": "Vozdovac"
    },
    {
      "id": 12,
      "name": "Macva"
    },
    {
      "id": 13,
      "name": "Rad"
    },
    {
      "id": 14,
      "name": "Dinamo"
    },
    {
      "id": 15,
      "name": "Zemun"
    },
    {
      "id": 16,
      "name": "Backa"
    }
  ],
  "matches": [
    {
      "round": 1,
      "Hgoals": "1",
      "HpossessionBall": "50",
      "Hshots": "22",
      "Hfreekicks": "11",
      "Hcorners": "2",
      "Hoffsides": "5",
      "Hteam": "Partizan",
      "Agoals": "1",
      "ApossessionBall": "50",
      "Ashots": "22",
      "Afreekicks": "11",
      "Acorners": "22",
      "Aoffsides": "4",
      "Ateam": "Crvena Zvezda",
      "id": 1
    },
    {
      "id": 2,
      "round": "2",
      "Hgoals": "3",
      "HpossessionBall": "60",
      "Hshots": "22",
      "Hfreekicks": "3",
      "Hcorners": "4",
      "Hoffsides": "6",
      "Hteam": "Radnicki Nis",
      "Agoals": "1",
      "ApossessionBall": "40",
      "Ashots": "22",
      "Afreekicks": "3",
      "Acorners": "5",
      "Aoffsides": "7",
      "Ateam": "Napredak"
    },
    {
      "id": 3,
      "round": "3",
      "Hgoals": "1",
      "HpossessionBall": "40",
      "Hshots": "12",
      "Hfreekicks": "13",
      "Hcorners": "15",
      "Hoffsides": "1",
      "Hteam": "Vozdovac",
      "Agoals": "1",
      "ApossessionBall": "60",
      "Ashots": "12",
      "Afreekicks": "14",
      "Acorners": "16",
      "Aoffsides": "1",
      "Ateam": "Radnicki Nis"
    },
    {
      "round": 1,
      "Hgoals": "12",
      "HpossessionBall": "55",
      "Hshots": "2",
      "Hfreekicks": "2",
      "Hcorners": "3",
      "Hoffsides": "6",
      "Hteam": "Vojvodina",
      "Agoals": "1",
      "ApossessionBall": "45",
      "Ashots": "2",
      "Afreekicks": "2",
      "Acorners": "3",
      "Aoffsides": "4",
      "Ateam": "Cukaricki",
      "id": 4
    },
    {
      "id": 5,
      "round": "5",
      "Hgoals": "3",
      "HpossessionBall": "55",
      "Hshots": "12",
      "Hfreekicks": "5",
      "Hcorners": "7",
      "Hoffsides": "2",
      "Hteam": "Crvena Zvezda",
      "Agoals": "2",
      "ApossessionBall": "45",
      "Ashots": "1",
      "Afreekicks": "4",
      "Acorners": "8",
      "Aoffsides": "4",
      "Ateam": "Spartak ZK"
    },
    {
      "id": 6,
      "round": "6",
      "Hgoals": "4",
      "HpossessionBall": "65",
      "Hshots": "22",
      "Hfreekicks": "10",
      "Hcorners": "5",
      "Hoffsides": "4",
      "Hteam": "Partizan",
      "Agoals": "0",
      "ApossessionBall": "35",
      "Ashots": "3",
      "Afreekicks": "1",
      "Acorners": "2",
      "Aoffsides": "1",
      "Ateam": "Macva"
    }
  ]
}